<svg width="884" height="97" viewBox="0 0 884 97" fill="none" xmlns="http://www.w3.org/2000/svg">
<path d="M96.8792 84.5714V28.2262L69.6829 12.0555L54.1867 29.1633L73.4067 41.1772V96.1528L96.8792 84.5714Z" fill="#58B3FF"/>
<path d="M48.685 55.1373L23.675 70.9476V95.6001L48.5649 78.7807L48.685 55.1373Z" fill="#0B2541"/>
<path d="M54.427 29.4276L69.6829 12.0555L62.4754 16.6689L48.685 25.7033L54.427 29.4276Z" fill="#0B2541"/>
<path d="M0.779144 84.5714L23.675 95.6482L24.4197 41.2974L69.6588 12.0556L48.8291 0.041687L0.779144 28.2263V84.5714Z" fill="#FF6565"/>
<path d="M0.779144 84.5714L23.675 95.6482L24.4197 41.2974L69.6588 12.0556L48.8291 0.041687L0.779144 28.2263V84.5714Z" fill="#FF6565"/>
<path d="M148.965 51.4371C150.983 52.0618 152.617 52.5904 153.77 53.0469C155.291 53.6105 156.776 54.2685 158.215 55.0172C159.704 55.7165 161.087 56.6225 162.323 57.7083C163.309 58.7484 164.121 59.9412 164.726 61.2404C165.467 62.732 165.838 64.3805 165.807 66.046C165.917 69.0635 164.858 72.007 162.852 74.2635C160.912 76.3954 158.416 77.9433 155.644 78.7326C152.469 79.6118 149.184 80.0326 145.89 79.9821C139.132 79.9773 132.497 78.1691 126.67 74.744L131.043 67.8C135.668 70.5173 140.912 72.0061 146.275 72.125C153.354 72.125 156.902 70.2909 156.918 66.6226C156.923 65.6675 156.629 64.7347 156.077 63.9555C155.359 63.0643 154.447 62.3492 153.41 61.8651C152.31 61.312 151.179 60.8227 150.022 60.3994C148.965 60.015 147.5 59.5344 145.602 58.9578H145.386C145.315 58.9785 145.24 58.9785 145.169 58.9578C145.091 58.9337 145.007 58.9337 144.929 58.9578C142.791 58.285 141.109 57.7564 139.932 57.3479C138.402 56.7974 136.909 56.1473 135.463 55.4017C133.954 54.6914 132.555 53.7691 131.307 52.6625C130.261 51.622 129.4 50.4114 128.76 49.0823C127.618 46.6652 127.354 43.9258 128.011 41.3346C128.669 38.7434 130.208 36.462 132.364 34.8819C136.664 32.1704 141.705 30.8762 146.779 31.1817C153.175 31.1814 159.458 32.8724 164.99 36.0833L160.738 42.8111C156.366 40.2174 151.404 38.7863 146.323 38.6543C143.847 38.514 141.374 38.9757 139.115 39.9998C138.421 40.3067 137.827 40.8031 137.402 41.4321C136.977 42.0611 136.738 42.7973 136.713 43.556C136.721 44.4756 137.024 45.3682 137.578 46.1029C138.204 46.9534 139.029 47.638 139.98 48.0972C141.066 48.6691 142.19 49.1668 143.344 49.5869C144.425 49.9954 145.746 50.4519 147.596 51.0046L148.965 51.4371Z" fill="#0B2541"/>
<path d="M200.235 31.5901C202.517 31.5457 204.785 31.9707 206.897 32.8386C209.009 33.7066 210.92 34.9991 212.511 36.636C214.119 38.2288 215.395 40.1244 216.266 42.2133C217.137 44.3022 217.585 46.5429 217.585 48.806C217.585 51.0692 217.137 53.3099 216.266 55.3988C215.395 57.4876 214.119 59.3833 212.511 60.9761C210.914 62.6061 209.002 63.8941 206.892 64.7616C204.781 65.629 202.516 66.0578 200.235 66.0219H193.916L191.081 57.7083H200.042C201.216 57.7247 202.381 57.5032 203.467 57.0572C204.553 56.6112 205.537 55.95 206.361 55.1133C207.191 54.3031 207.85 53.3352 208.3 52.2665C208.75 51.1977 208.982 50.0498 208.982 48.8901C208.982 47.7305 208.75 46.5825 208.3 45.5138C207.85 44.4451 207.191 43.4771 206.361 42.6669C205.544 41.8161 204.563 41.1408 203.477 40.6822C202.39 40.2237 201.222 39.9915 200.042 39.9999H185.243V78.8047H176.546V31.5901H200.235Z" fill="#0B2541"/>
<path d="M258.423 78.8047L242.687 39.5914L234.398 60.3754H244.633L247.804 68.2565H231.275L227.023 78.8047H218.229L237.065 31.7823H248.429L267.312 78.8047H258.423Z" fill="#0B2541"/>
<path d="M304.84 67.1032L310.702 73.4946C306.165 77.793 300.133 80.1546 293.884 80.0782C287.325 80.0466 281.043 77.4265 276.404 72.7876C271.766 68.1486 269.146 61.8659 269.114 55.3056C269.119 50.4903 270.526 45.7807 273.165 41.7529C275.803 37.725 279.558 34.5535 283.97 32.6262C288.383 30.699 293.261 30.0996 298.008 30.9014C302.756 31.7031 307.167 33.8712 310.702 37.1406L304.767 43.4599C302.466 41.3478 299.6 39.9509 296.519 39.4397C293.437 38.9284 290.274 39.3248 287.414 40.5805C284.554 41.8362 282.121 43.897 280.411 46.5116C278.702 49.1262 277.79 52.1817 277.787 55.3056C277.772 57.4345 278.19 59.5442 279.016 61.5063C279.842 63.4684 281.059 65.2419 282.592 66.7188C285.536 69.6699 289.51 71.364 293.677 71.4447C297.844 71.5253 301.88 69.9862 304.936 67.1513L304.84 67.1032Z" fill="#0B2541"/>
<path d="M359.256 31.7823V39.8557H330.066V70.6593H359.256V78.8047H321.393V31.7823H359.256ZM354.211 59.3662H335.712L338.475 51.2208H354.211V59.3662Z" fill="#0B2541"/>
<path d="M411.462 31.7824C414.515 31.732 417.544 32.3145 420.36 33.4931C423.176 34.6717 425.717 36.4208 427.824 38.6303C432.174 43.0758 434.611 49.0489 434.611 55.2695C434.611 61.4901 432.174 67.4633 427.824 71.9087C425.724 74.1239 423.188 75.8802 420.377 77.0671C417.565 78.2539 414.538 78.8455 411.486 78.8047H391.281V46.0308L399.955 49.0103V70.395H411.246C413.205 70.418 415.146 70.0349 416.949 69.2698C418.752 68.5047 420.377 67.3743 421.721 65.9499C424.495 63.082 426.046 59.2479 426.046 55.2575C426.046 51.2671 424.495 47.433 421.721 44.5651C420.377 43.1407 418.752 42.0103 416.949 41.2452C415.146 40.4801 413.205 40.097 411.246 40.12H391.281V31.7824H411.462Z" fill="#0B2541"/>
<path d="M482.432 31.7823V39.8557H453.242V70.6593H482.432V78.8047H444.545V31.7823H482.432ZM477.387 59.3662H458.888L461.651 51.2208H477.387V59.3662Z" fill="#0B2541"/>
<path d="M519.767 69.53C520.506 70.0411 521.11 70.7231 521.528 71.5179C521.947 72.3128 522.167 73.197 522.17 74.0953C522.108 75.0056 521.794 75.8807 521.264 76.6232C520.733 77.3656 520.007 77.9462 519.167 78.3001C516.363 79.6169 513.272 80.2037 510.181 80.0061C503.407 79.9315 496.773 78.0575 490.961 74.5758L495.334 67.5597C499.931 70.3024 505.166 71.7935 510.518 71.8847C515.058 71.8847 518.158 71.0918 519.767 69.53ZM513.16 51.2208C515.275 51.8936 516.932 52.4462 518.158 52.8787C519.723 53.4485 521.255 54.1063 522.746 54.849C524.298 55.5547 525.752 56.4593 527.071 57.5401C528.158 58.5597 529.067 59.7535 529.762 61.0722C530.546 62.5519 530.95 64.2032 530.939 65.8778C530.975 68.2827 530.289 70.6431 528.969 72.6536C528.787 70.8872 528.085 69.2146 526.951 67.848C525.62 66.2219 523.989 64.8676 522.146 63.8594C520.207 62.7133 518.182 61.7173 516.091 60.88C513.779 59.9613 511.421 59.1593 509.028 58.4772L504.031 56.8674C502.496 56.3176 501.003 55.6592 499.562 54.8971C498.103 54.1674 496.752 53.2374 495.55 52.1339C494.499 51.0802 493.637 49.8527 493.003 48.5057C492.25 46.9404 491.871 45.221 491.898 43.4839C491.872 41.6682 492.297 39.8744 493.136 38.2638C493.975 36.6533 495.2 35.2765 496.703 34.2572C500.99 31.5121 506.037 30.1996 511.118 30.5089C517.503 30.5929 523.745 32.4029 529.185 35.7469L524.933 42.4747C520.574 39.8417 515.607 38.3846 510.518 38.2458C508.04 38.1112 505.566 38.5812 503.31 39.6154C502.612 39.9305 502.017 40.4355 501.592 41.0728C501.167 41.7101 500.93 42.454 500.908 43.2196C500.908 45.6224 502.613 47.3764 506.025 48.794C507.082 49.2506 509.484 50.0675 513.16 51.2208Z" fill="#0B2541"/>
<path d="M542.231 78.8047V31.7823H550.807V78.8047H542.231Z" fill="#0B2541"/>
<path d="M586.845 52.4943H608.588C608.677 53.4125 608.717 54.3349 608.708 55.2575C608.908 61.5971 606.702 67.7778 602.533 72.5575C600.381 75.007 597.715 76.9512 594.725 78.2512C591.735 79.5513 588.494 80.1751 585.235 80.0782C578.686 80.034 572.419 77.4075 567.795 72.7692C563.171 68.131 560.563 61.8555 560.538 55.3056C560.544 48.7438 563.153 42.4526 567.792 37.8127C572.432 33.1728 578.722 30.5633 585.283 30.5569C589.184 30.5586 593.03 31.4772 596.51 33.2385C599.991 34.9998 603.008 37.5545 605.32 40.6967L598.113 45.6944C596.598 43.687 594.652 42.0448 592.419 40.8889C589.964 39.6519 587.232 39.0653 584.486 39.1852C581.74 39.3051 579.07 40.1275 576.732 41.5738C574.394 43.0201 572.466 45.042 571.133 47.4461C569.799 49.8502 569.104 52.5562 569.114 55.3056C569.094 57.4353 569.509 59.5467 570.336 61.5096C571.162 63.4726 572.382 65.2454 573.919 66.7188C575.382 68.2576 577.146 69.4786 579.101 70.3054C581.056 71.1322 583.161 71.5471 585.283 71.5243C588.582 71.6576 591.817 70.5905 594.389 68.5208C596.796 66.5337 598.526 63.8465 599.338 60.8319H586.845V52.4943Z" fill="#0B2541"/>
<path d="M623.747 31.7823L661.491 78.8047H651.4L626.462 47.5686V78.8047H617.765V31.7823H623.747ZM660.554 31.7823V67.6318L651.881 56.8674V31.7823H660.554Z" fill="#0B2541"/>
<path d="M711.775 31.7823V39.8557H682.561V70.6593H711.775V78.8047H673.863V31.7823H711.775ZM706.73 59.3662H688.23L690.993 51.2208H706.73V59.3662Z" fill="#0B2541"/>
<path d="M747.812 40.3843H731.716V78.8288H723.043V31.7824H747.812C749.971 31.7606 752.111 32.175 754.105 33.0008C756.099 33.8266 757.906 35.0467 759.416 36.5879C760.963 38.0696 762.188 39.8541 763.015 41.8302C763.842 43.8062 764.252 45.9314 764.221 48.0732C764.25 51.4055 763.149 54.6491 761.098 57.2758C759.01 59.9641 756.126 61.9236 752.858 62.8743L766.576 78.8768H755.813L737.169 57.0836H743.824C746.841 57.256 749.827 56.4098 752.305 54.6808C753.344 53.9333 754.183 52.9419 754.748 51.7939C755.314 50.6458 755.589 49.3764 755.549 48.0972C755.568 47.0922 755.377 46.0942 754.988 45.1673C754.599 44.2404 754.021 43.4051 753.29 42.715C752.576 41.9915 751.722 41.4205 750.78 41.0364C749.839 40.6523 748.829 40.4632 747.812 40.4804V40.3843Z" fill="#0B2541"/>
<path d="M821.137 53.8399C823.409 55.0947 825.377 56.8337 826.903 58.9338C828.363 60.8809 829.148 63.2517 829.137 65.6856C829.186 67.7073 828.746 69.711 827.856 71.5265C826.965 73.3419 825.649 74.9155 824.02 76.1136C820.015 78.9421 815.174 80.3388 810.278 80.0782C804.064 80.0021 797.971 78.3485 792.571 75.2727L796.415 68.2085C800.658 70.577 805.419 71.8644 810.278 71.9568C812.845 72.0827 815.395 71.4742 817.629 70.2028C818.488 69.6933 819.194 68.9635 819.676 68.089C820.157 67.2144 820.396 66.227 820.368 65.2291C820.361 64.1534 820.071 63.0986 819.527 62.1707C818.983 61.2428 818.204 60.4744 817.269 59.9429C814.954 58.4987 812.26 57.7791 809.533 57.8766H804.728V50.5H809.533C811.976 50.5623 814.391 49.9646 816.524 48.77C817.422 48.3322 818.177 47.6478 818.7 46.7968C819.223 45.9458 819.493 44.9634 819.479 43.9645C819.491 43.08 819.236 42.2125 818.748 41.4752C818.259 40.7379 817.559 40.1651 816.74 39.8317C814.639 38.8433 812.334 38.3658 810.013 38.4381C805.465 38.547 800.992 39.6285 796.896 41.6097L793.652 35.0742C798.643 32.2182 804.265 30.6493 810.013 30.5089C812.903 30.459 815.783 30.8728 818.542 31.7343C820.672 32.3733 822.628 33.491 824.26 35.0021C825.504 36.2042 826.521 37.6204 827.263 39.1829C827.896 40.5294 828.232 41.9962 828.248 43.4839C828.272 47.9291 825.87 51.389 821.137 53.8399Z" fill="#0B2541"/>
<path d="M860.274 31.7824C863.329 31.7345 866.361 32.318 869.181 33.4964C872 34.6747 874.546 36.4225 876.659 38.6303C880.992 43.0847 883.417 49.0545 883.417 55.2695C883.417 61.4846 880.992 67.4544 876.659 71.9088C874.553 74.1223 872.013 75.8773 869.197 77.0639C866.382 78.2504 863.352 78.8431 860.298 78.8048H840.045V46.0309L848.718 49.0103V70.395H860.009C861.964 70.4205 863.903 70.0385 865.703 69.2731C867.502 68.5078 869.122 67.376 870.46 65.9499C873.246 63.0878 874.804 59.2515 874.804 55.2575C874.804 51.2635 873.246 47.4272 870.46 44.5652C869.122 43.139 867.502 42.0073 865.703 41.2419C863.903 40.4766 861.964 40.0945 860.009 40.12H840.021V31.7824H860.274Z" fill="#0B2541"/>
</svg>
