<svg width="64" height="64" viewBox="0 0 64 64" fill="none" xmlns="http://www.w3.org/2000/svg">
<path d="M64 56.288V18.768L45.888 8L35.568 19.392L48.368 27.392V64L64 56.288Z" fill="#E6E6E6"/>
<path d="M31.904 36.688L15.2479 47.216V63.6321L31.824 52.4321L31.904 36.688Z" fill="#444444"/>
<path d="M35.7279 19.568L45.888 8L41.0879 11.072L31.9039 17.088L35.7279 19.568Z" fill="#444444"/>
<path d="M0 56.288L15.248 63.664L15.744 27.472L45.8721 8L32.0001 0L0 18.768V56.288Z" fill="white"/>
<path d="M0 56.288L15.248 63.664L15.744 27.472L45.8721 8L32.0001 0L0 18.768V56.288Z" fill="#E6E6E6"/>
</svg>
